%YAML 1.1
%TAG !u! tag:unity3d.com,2011:
--- !u!74 &7400000
AnimationClip:
  m_ObjectHideFlags: 0
  m_CorrespondingSourceObject: {fileID: 0}
  m_PrefabInstance: {fileID: 0}
  m_PrefabAsset: {fileID: 0}
  m_Name: Idle
  serializedVersion: 6
  m_Legacy: 0
  m_Compressed: 0
  m_UseHighQualityCurve: 1
  m_RotationCurves: []
  m_CompressedRotationCurves: []
  m_EulerCurves: []
  m_PositionCurves: []
  m_ScaleCurves: []
  m_FloatCurves: []
  m_PPtrCurves:
  - curve:
    - time: 0
      value: {fileID: 21300000, guid: c4d7d6470acd7bf45971042161c6e018, type: 3}
    - time: 0.06666667
      value: {fileID: 21300000, guid: 1fa29ad54380226498c2250e612fec93, type: 3}
    - time: 0.13333334
      value: {fileID: 21300000, guid: c7cf710ee57c1ae45aac513a85fcff07, type: 3}
    - time: 0.2
      value: {fileID: 21300000, guid: 774282641b60d9d4daddad7c6ad7ae69, type: 3}
    - time: 0.26666668
      value: {fileID: 21300000, guid: a53475b08393802498550588cf70ef5e, type: 3}
    - time: 0.33333334
      value: {fileID: 21300000, guid: c6b584771aee7a148bcf2885a6f347ba, type: 3}
    - time: 0.4
      value: {fileID: 21300000, guid: 60a2cfad92429cc4b9d2f6ce7148c37a, type: 3}
    - time: 0.46666667
      value: {fileID: 21300000, guid: dcc9002875a3a244eacb72418d292f8e, type: 3}
    - time: 0.53333336
      value: {fileID: 21300000, guid: 64afd51ca9828034f8c64a261e4b99b9, type: 3}
    - time: 0.6
      value: {fileID: 21300000, guid: 76089009971280441963c2a3a55b5071, type: 3}
    - time: 0.6666667
      value: {fileID: 21300000, guid: cd65a99c817869946969cd216cab2115, type: 3}
    - time: 0.73333335
      value: {fileID: 21300000, guid: 591e3ea0fd60a1442bfbe969a16d4d74, type: 3}
    - time: 0.8
      value: {fileID: 21300000, guid: d2d936bae69c599429ee1a386892a9f0, type: 3}
    - time: 0.8666667
      value: {fileID: 21300000, guid: f3b094a028c28604382b41bfab29604a, type: 3}
    - time: 0.93333334
      value: {fileID: 21300000, guid: ed4c6463819f7cb4b85a6a44dc35c9cf, type: 3}
    attribute: m_Sprite
    path: 
    classID: 212
    script: {fileID: 0}
  m_SampleRate: 60
  m_WrapMode: 0
  m_Bounds:
    m_Center: {x: 0, y: 0, z: 0}
    m_Extent: {x: 0, y: 0, z: 0}
  m_ClipBindingConstant:
    genericBindings:
    - serializedVersion: 2
      path: 0
      attribute: 0
      script: {fileID: 0}
      typeID: 212
      customType: 23
      isPPtrCurve: 1
    pptrCurveMapping:
    - {fileID: 21300000, guid: c4d7d6470acd7bf45971042161c6e018, type: 3}
    - {fileID: 21300000, guid: 1fa29ad54380226498c2250e612fec93, type: 3}
    - {fileID: 21300000, guid: c7cf710ee57c1ae45aac513a85fcff07, type: 3}
    - {fileID: 21300000, guid: 774282641b60d9d4daddad7c6ad7ae69, type: 3}
    - {fileID: 21300000, guid: a53475b08393802498550588cf70ef5e, type: 3}
    - {fileID: 21300000, guid: c6b584771aee7a148bcf2885a6f347ba, type: 3}
    - {fileID: 21300000, guid: 60a2cfad92429cc4b9d2f6ce7148c37a, type: 3}
    - {fileID: 21300000, guid: dcc9002875a3a244eacb72418d292f8e, type: 3}
    - {fileID: 21300000, guid: 64afd51ca9828034f8c64a261e4b99b9, type: 3}
    - {fileID: 21300000, guid: 76089009971280441963c2a3a55b5071, type: 3}
    - {fileID: 21300000, guid: cd65a99c817869946969cd216cab2115, type: 3}
    - {fileID: 21300000, guid: 591e3ea0fd60a1442bfbe969a16d4d74, type: 3}
    - {fileID: 21300000, guid: d2d936bae69c599429ee1a386892a9f0, type: 3}
    - {fileID: 21300000, guid: f3b094a028c28604382b41bfab29604a, type: 3}
    - {fileID: 21300000, guid: ed4c6463819f7cb4b85a6a44dc35c9cf, type: 3}
  m_AnimationClipSettings:
    serializedVersion: 2
    m_AdditiveReferencePoseClip: {fileID: 0}
    m_AdditiveReferencePoseTime: 0
    m_StartTime: 0
    m_StopTime: 0.95
    m_OrientationOffsetY: 0
    m_Level: 0
    m_CycleOffset: 0
    m_HasAdditiveReferencePose: 0
    m_LoopTime: 1
    m_LoopBlend: 0
    m_LoopBlendOrientation: 0
    m_LoopBlendPositionY: 0
    m_LoopBlendPositionXZ: 0
    m_KeepOriginalOrientation: 0
    m_KeepOriginalPositionY: 1
    m_KeepOriginalPositionXZ: 0
    m_HeightFromFeet: 0
    m_Mirror: 0
  m_EditorCurves: []
  m_EulerEditorCurves: []
  m_HasGenericRootTransform: 0
  m_HasMotionFloatCurves: 0
  m_Events: []
