[api-updater (non-obsolete-error-filter)] 06/07/2021 22:57:36 : Starting C:/Users/HallE/Desktop/Dev/Unity/2020.3.6f1/Editor/Data/Tools/ScriptUpdater/APIUpdater.NonObsoleteApiUpdaterDetector.exe
[api-updater (non-obsolete-error-filter)] 
----------------------------------
jit/startup time      : 269,937ms
moved types parse time: 58ms
candidates parse time : 2ms
C# parse time         : 317ms
candidates check time : 32ms
console write time    : 0ms

[api-updater (non-obsolete-error-filter)] 07/07/2021 23:29:57 : Starting C:/Users/HallE/Desktop/Dev/Unity/2020.3.6f1/Editor/Data/Tools/ScriptUpdater/APIUpdater.NonObsoleteApiUpdaterDetector.exe
[api-updater (non-obsolete-error-filter)] 
----------------------------------
jit/startup time      : 217,3067ms
moved types parse time: 59ms
candidates parse time : 1ms
C# parse time         : 239ms
candidates check time : 29ms
console write time    : 0ms

[api-updater (non-obsolete-error-filter)] 14/11/2021 17:30:27 : Starting C:/Users/HallE/Desktop/Dev/Unity/2020.3.6f1/Editor/Data/Tools/ScriptUpdater/APIUpdater.NonObsoleteApiUpdaterDetector.exe
[api-updater (non-obsolete-error-filter)] 
----------------------------------
jit/startup time      : 233,2606ms
moved types parse time: 62ms
candidates parse time : 2ms
C# parse time         : 326ms
candidates check time : 40ms
console write time    : 0ms

